{
  "type": "service_account",
  "project_id": "ifpibusway",
  "private_key_id": "155b3def07bcb3dcc212949015e933dd7f43a064",
  "private_key": "-----BEGIN PRIVATE KEY-----\nMIIEvQIBADANBgkqhkiG9w0BAQEFAASCBKcwggSjAgEAAoIBAQDxisVrvSO4kgr0\nFUqs2ZQTpJLOldqMsze7xzt6ppzCUU0RqRMi0DCgg0EKdOf2Los9GLD6SlPYZxfg\n9fro5FJnilJMs1XcC6IkU00kRAR0Z/mrhH2AGeMWJR5KbtNSkmwd0dp8YSKQ7NUh\nq/vpyYe1/hwjG7qju7w/akEG5tlZmLDO58KiJlEwG5d8DNzBEdyXLKZvqVEGIQll\nUrU+CwmrC54rGmQwbZ0BVA9kPdfOPwXf1+7MVG7olCtLDS+plJctDeZB33zc5N2a\ndKQtJ6DbIBJo+eV4pmln+QFhwAxWmodqgfaRTC95PA0OyOZ/g+8OguhpoedLi1pE\n7HSeAEyPAgMBAAECggEAIhymj/Yovs7FRD5jivC5dGK4JvvL3zYKR3c2I7a3Ccxg\nlX9qx+5eB7UxsM/c2IwvNuQvTlHD8JpyqV8j3dMs/hlvUQy8sfRkpDutd9MxS91J\nSdtOvBIr23tHgVyQdKdgJH/4Gru/HXeNDBHVZGmFRIMMJzspyyjex5fycg6VII1l\nHAATVUDNjcmkKuCm4ut1rJW973jdbJ7YXjL5BVKASmO5po6xpPt9I3oJlEObR9Es\nldKUP5MUJB6sCPf0bnuIIyXM20RJJbD9KZVRDynuMVqEPVdKhUxr0uc9Z1Ws3VM1\n8p8pGXLn9H7uptDA/GTCIg1vHww7Wq/qsgVzyBTp3QKBgQD/VUw6JK/8YA1IxX9X\nAAhgjFHlK2Zf75C9Cm7aRWfMfAKwl48wEq9cvsG7Gk6evLbW+r5zZiklNvR4j5Yz\nlwQMdY77yBj2yQeVJTsKjXcFwht8KswDVgaYNYG1k8YQzu1NhdmtMMX6o+8317zw\nVve7swD4eAUy3qKx74yh2WtJowKBgQDyLEDe7g8nZM1EnfDsJYNyADjLt0Yquvn8\nCAqO8RJ+wMHQpprzLmd3gqOriBDXa3CF/nHWZMp5f1EdMFNHg8nnXsfPy+fXdyvM\nPQIZEHFokf5caVAdjwIymp11FXy8bOoOGXSyMEzbjUrdb9HlgOJtcnL0evxaZZlq\nx5M/TUE4JQKBgQDugZz8yvxhANAn4+Q5PlyU4z40lb/BaaSIEVDPLvnwtv5EOq6U\nNz/7oGyS+9XozVr1oa95WDqi+pyOaYHimvQ7Nyzi4F0BWXNtzCNEjjRZ+qF18Pw1\nOYxbbc/F702asdBVE+zrrJ2irLNuNGXXE0XB3UnQzzv78p+DGsMBBHkFhQKBgDMB\nRQxu4Twvy9fW2AY0hHG/QDcPu7SGOt5tJyQh+/48RNXYMSxkqqAOIMCg4MMuOr3N\n8FXyVn6uZPwb0H5wcFbNrJHEZWkJDW1vsABtaSVYElWOTLRdCV51GBKv2tyop8ce\nb2iUKavYH1tyEKggtA/PGg0J1hqH6X8G16lucP0NAoGAaIKay35/kNTHFR/qLLTu\nET59MMH8ts1hFGjhp4NYMossIBflpSnrJU/FfW8DfOg16pwX0qvHl3It1ytOOt6M\noKiZ4a2fh15rtig7Zd2EIETijK9lq6/scAMugWi7e9zq+9hNiOsVyD7uIdZVrGmh\nLD5r40R7ODViOm3MACFCYFM=\n-----END PRIVATE KEY-----\n",
  "client_email": "ifpibusway@appspot.gserviceaccount.com",
  "client_id": "105583941947540913514",
  "auth_uri": "https://accounts.google.com/o/oauth2/auth",
  "token_uri": "https://oauth2.googleapis.com/token",
  "auth_provider_x509_cert_url": "https://www.googleapis.com/oauth2/v1/certs",
  "client_x509_cert_url": "https://www.googleapis.com/robot/v1/metadata/x509/ifpibusway%40appspot.gserviceaccount.com"
}
